<svg xmlns="http://www.w3.org/2000/svg" xmlns:xlink="http://www.w3.org/1999/xlink" width="258" height="168" viewBox="0 0 258 168">
    <defs>
        <path id="a" d="M.375.26h12.95v15.784H.376z"/>
        <path id="c" d="M.182.605H21.44v18.648H.181z"/>
    </defs>
    <g fill="none" fill-rule="evenodd">
        <path fill="#A6A8AB" d="M100.704 80.301c.046-.008.049-.083.04-.135-.17-1.08-.49-2.131-.843-3.157-.354-1.028-.472-2.025-.88-3.029-.213-.526-.352-1.227-.653-1.85-.094-.193.035-.177.162-.08.492.374 1.003.72 1.442 1.188.436.47.815 1.007 1.196 1.538.753 1.057 1.438 2.31 1.973 3.313-.44-1.625-1.393-2.937-2.253-4.3-.266-.419-.462-.593-.811-.925-.175-.169-.608-.539-.814-.646-.133-.07-.652-.49-.652-.49s.704-.126.822-.153c.41-.085.806-.212 1.225-.258a5.606 5.606 0 0 1 2.598.333c1.05.397 2.003 1.122 2.775 2.065.078.096.22-.055.143-.16-2.01-2.628-4.974-3.52-7.634-2.072.039-.019.092-.232.113-.282a6.826 6.826 0 0 1 1.279-1.966c.302-.323.63-.618.978-.875.683-.501 1.453-.87 2.26-1.021.233-.044.469-.07.707-.077.083-.002.089-.155.005-.17-2.267-.372-4.786 1.972-5.6 4.293.005.017.013.031.019.048.02.099-.082.16-.147.107-.058-.05-.097-.115-.15-.166-.204-.138-1.023-.486-1.394-.626a3.305 3.305 0 0 0-1.36-.218 3.307 3.307 0 0 0-1.988.847c-.998.885-1.527 2.362-1.631 3.846-.004.079-.01.16.017.234.023.07.084.134.15.13 0 0 .048-.237.044-.377-.025-.787.269-1.515.585-2.192.435-.933 1.119-1.736 1.988-2.053.58-.211.95-.11 1.557.019.422.094.816.226 1.22.397.167.071.62.167.768.289.105.08.197.138.027.145-.817.052-1.623.517-2.305.993a8.28 8.28 0 0 0-1.864 1.805 8.903 8.903 0 0 0-1.05 1.771c-.03.061-.048.152.004.189.052.04.109-.03.14-.092.862-1.644 2.19-3.055 3.728-3.786.236-.11.45-.271.683-.389.08-.044.428-.224.514-.13.073.086-1.12 2.102-1.418 4.574-.084.68-.118 1.375-.096 2.07.003.061.014.138.065.153.067.02.1-.088.104-.164a20.26 20.26 0 0 1 .398-2.961c.206-.96.554-1.69.837-2.614.037-.115.28-.928.37-.865.068.048 1.922 5.28 2.523 7.828.012.052.04.113.084.104"/>
        <path fill="#A6A8AB" d="M97.762 43.07c.723 3.566 1.587 7.09 2.794 10.507 2.522 7.141 6.307 13.78 11.244 19.343.124.14.332-.041.218-.19-4.24-5.542-7.874-11.483-10.356-18.131-1.324-3.545-2.641-7.656-3.396-11.38-.548-2.711-1.247-7.03-1.36-9.864 1.91 11.202 8.522 19.786 14.923 27 .118.135.309-.034.207-.182-3.096-4.465-7.121-8.442-9.753-13.237-2.076-3.783-4.182-8.897-4.862-13.267 7.009 8.767 17.1 15.768 27.183 19.906.077.032.144-.092.07-.136-4.805-2.943-9.916-5.272-14.594-8.46-4.61-3.137-8.586-7.021-12.058-11.468 11.986 3.04 22.84 3.726 35.536 9.83.154.077.3-.19.145-.282-10.91-6.215-24-7.293-35.96-10.232-.007-.065-.018-.128-.023-.189 8.624-1.245 17.018-1.025 25.712-.3.184.014.208-.265.03-.3-8.61-1.543-17.69-1.181-26.345.033-.023-.009-.04-.03-.066-.034.003-.006.005-.015.007-.023 11.054-6.1 23.383-8.706 35.789-8.987.27-.007.327-.445.044-.451-12.536-.347-24.41 3.075-35.6 8.73.016-.044.03-.092.046-.138 5.469-5.096 9.325-7.199 16.332-10.58.15-.075.158-.279 0-.215-6.771 2.812-10.9 5.077-16.131 10.18 3.375-9.323 12.45-17.727 20.574-22 .164-.088.05-.334-.121-.269-5.51 2.055-9.914 6.522-13.91 10.88-3.324 3.63-6.158 7.512-7.617 12.35-.004-.04-.016-.05-.044-.098-2.321-4.011-3.354-8.038-2.288-12.702.055-.244-.268-.39-.358-.141-1.464 4.057-.45 9.305 1.996 12.847-2.726-1.545-6.146-3.382-8.966-4.719.002-.004.009-.004.008-.009-.008-.043-.044-.041-.072-.022-11.656-5.52-24.067-9.23-36.735-11.076-8.095-1.179-16.3-1.62-24.464-1.2-4.72.24-9.197.313-13.893.89-3.915.481-8.057 1.563-11.503 3.285-.298.15-.091.622.219.497 4.522-1.867 8.298-2.553 12.566-3.084 4.636-.576 9.028-.6 13.697-.736 7.937-.233 16.362-.03 24.224 1.168 15.576 2.37 30.472 7.699 44.45 15.24-2.924-.114-5.636 1.186-7.808 3.374-.213.214-.18.575.06.396 1.39-1.052 2.514-2.13 4.178-2.62 1.102-.326 2.742-.345 3.852-.414.006.023 0 .046.008.067-.292.436-.428 1.378-.666 1.882-.943 2-1.75 2.902-3.926 3.674-1.718.609-3.511 1.102-4.046 3.167-.086.327.262.156.375-.175.943-2.742 4.15-1.673 5.944-3.507 1.133-1.16 2.276-3.41 2.865-4.974.033.01.007.513.04.524-5.034 11.926-3.305 27.478 2.155 38.792.11.23.445.065.345-.171-2.773-6.604-4.866-14.534-5-21.785-.114-6.157 1.468-12.9 2.974-17.08-.27 3.298.455 7.04 1.11 10.265"/>
        <path fill="#A6A8AB" d="M113.816 67.159a19.59 19.59 0 0 1-1.118-2.745c-.298-.934-.358-1.746-.574-2.693-.027-.117-.22-.949-.112-.942.083.004 4.245 3.456 6.013 5.3.036.037.092.076.126.043.034-.028 0-.098-.034-.138-.68-.83-1.47-1.55-2.275-2.23-.811-.687-1.402-1.472-2.243-2.104-.444-.339-.91-.856-1.473-1.222-.176-.115-.058-.171.099-.159.604.05 1.213.067 1.815.224.606.16 1.195.41 1.782.658 1.163.487 2.366 1.18 3.319 1.747-1.177-1.152-2.638-1.743-4.043-2.435-.436-.213-.69-.257-1.151-.349-.231-.046-.784-.125-1.013-.102-.15.013-.8-.064-.8-.064s.54-.496.628-.58c.31-.3.585-.624.92-.893a5.74 5.74 0 0 1 2.38-1.142c1.095-.237 2.267-.14 3.388.239.118.04.164-.163.047-.21-3.01-1.142-5.984-.277-7.542 2.42.022-.042-.037-.253-.045-.307a7.182 7.182 0 0 1 .126-2.38 7.38 7.38 0 0 1 .404-1.282c.336-.806.812-1.542 1.425-2.112.179-.17.367-.322.567-.456.07-.046-.002-.182-.081-.147-2.117.93-3.115 4.311-2.665 6.738.012.015.028.02.038.034.067.071.01.18-.071.17-.073-.011-.14-.044-.21-.057-.242-.009-1.112.146-1.5.228-.458.098-.892.29-1.27.561a3.563 3.563 0 0 0-1.278 1.812c-.174.547-.204 1.14-.16 1.736.05.123.129.207.176.156.005-.298.029-.591.083-.881.049-.746.259-1.452.683-1.995.389-.5.754-.616 1.338-.837.408-.151.809-.256 1.238-.331.18-.031.613-.197.798-.175.129.012.234.006.095.11-.672.489-1.13 1.331-1.48 2.114a8.878 8.878 0 0 0-.702 2.561 9.491 9.491 0 0 0-.024 2.092c.007.067.034.159.096.16.063.003.08-.087.076-.158-.076-1.878.364-3.808 1.318-5.277.144-.226.252-.478.39-.71.05-.08.257-.427.377-.39.106.032.079 2.408 1.042 4.684.266.627.577 1.24.94 1.82.03.051.08.109.13.095.068-.02.043-.13.007-.2M127.142 60.288a18.786 18.786 0 0 1-1.368-2.617c-.383-.895-.52-1.7-.822-2.619-.036-.114-.305-.92-.198-.925.082-.009 4.546 3 6.476 4.653.04.029.1.066.13.029.03-.031-.009-.097-.046-.134-.755-.758-1.607-1.392-2.473-1.982-.872-.604-1.53-1.323-2.428-1.864-.472-.286-.985-.757-1.58-1.064-.184-.095-.07-.164.084-.169.608-.013 1.214-.059 1.828.033.62.099 1.228.291 1.836.475 1.203.362 2.465.928 3.463 1.393-1.277-1.024-2.786-1.466-4.25-2.007-.45-.165-.709-.181-1.176-.225-.235-.024-.794-.046-1.019.002-.107.02-.492.02-.686.02-.066.017-.13.035-.22.044-.032.002-.07-.029-.077-.062a1.785 1.785 0 0 1-.02-.186c-.01-.076-.055-.201-.064-.247a7.137 7.137 0 0 1-.098-2.376c.056-.452.151-.895.284-1.32.26-.835.664-1.62 1.222-2.251.161-.184.335-.351.522-.51.066-.055-.02-.182-.093-.14-2.022 1.145-2.7 4.613-2.029 6.98.015.014.03.02.044.033.072.062.026.175-.056.175-.076-.002-.143-.029-.214-.037-.242.02-1.094.263-1.47.386-.45.144-.863.38-1.213.69a3.62 3.62 0 0 0-1.105 1.936c-.29 1.341.124 2.854.892 4.107a.505.505 0 0 0 .142.176c.061.044.147.056.196.01 0 0-.097-.221-.18-.328-.467-.614-.647-1.383-.78-2.122-.185-1.026-.095-2.098.417-2.904.341-.54.695-.693 1.255-.97a6.68 6.68 0 0 1 1.201-.46c.174-.05.591-.258.776-.258.13 0 .235-.015.105.1-.623.56-1 1.443-1.275 2.254a9 9 0 0 0-.46 2.624c-.022.692.035 1.39.17 2.085.011.067.05.15.111.148.063-.002.07-.094.06-.16-.248-1.862.01-3.831.821-5.392.124-.24.204-.502.323-.749.041-.083.213-.448.337-.423.11.02.303 2.385 1.472 4.554.324.595.692 1.174 1.106 1.713.036.046.09.1.14.08.063-.026.03-.134-.013-.2M141.95 47.684c.026-.044-.028-.105-.077-.138-.972-.693-2.024-1.236-3.084-1.74-1.066-.506-1.929-1.172-3.01-1.615-.572-.231-1.223-.656-1.929-.892-.219-.075-.114-.165.056-.19.655-.106 1.301-.25 1.986-.247.69.015 1.388.123 2.083.226 1.376.203 2.861.616 4.038.957-1.593-.898-3.318-1.137-5.013-1.49-.524-.106-.806-.087-1.32-.06-.258.01-.867.075-1.103.155-.155.054-.862.146-.862.146s.418-.66.484-.773c.236-.393.428-.809.7-1.177a5.994 5.994 0 0 1 2.166-1.823c1.085-.535 2.353-.742 3.654-.637.135.01.121-.22-.014-.234-3.529-.406-6.408 1.28-7.232 4.515.013-.048-.116-.254-.139-.306a7.852 7.852 0 0 1-.558-3.975c.11-.934.388-1.828.862-2.59.136-.22.291-.432.46-.623.06-.067-.057-.193-.129-.134-1.954 1.529-1.978 5.331-.766 7.757.02.01.036.014.055.023.09.06.063.188-.025.2-.08.008-.162-.012-.239-.01-.259.061-1.133.451-1.514.637-.455.222-.857.54-1.17.924a3.691 3.691 0 0 0-.8 2.235c-.04 1.475.721 3.027 1.804 4.244.057.068.12.13.194.166.074.038.17.038.212-.021 0 0-.15-.217-.26-.322-.632-.582-.986-1.375-1.282-2.143-.409-1.064-.533-2.226-.14-3.161.26-.625.61-.847 1.157-1.228.383-.266.775-.48 1.206-.675.18-.082.588-.366.79-.393.14-.02.251-.054.133.09-.56.691-.787 1.692-.92 2.601a9.606 9.606 0 0 0 .04 2.87c.12.74.322 1.48.612 2.2.028.064.082.152.15.14.07-.015.055-.11.033-.181-.653-1.951-.776-4.089-.217-5.88.086-.27.12-.566.198-.84.026-.101.14-.517.278-.513.123.006.817 2.5 2.528 4.631.472.59.987 1.149 1.547 1.661.048.044.118.092.166.065.065-.038.007-.144-.053-.211a22.075 22.075 0 0 1-2.018-2.58c-.6-.899-.912-1.736-1.426-2.668-.063-.116-.52-.936-.404-.96.088-.017 5.537 2.504 7.965 3.97.05.032.121.059.146.017M142.227 23.26c.006-.052-.065-.08-.123-.091-1.136-.197-2.287-.22-3.429-.2-1.149.022-2.177-.2-3.316-.114-.602.046-1.345-.048-2.07.057-.225.033-.165-.1-.023-.203.546-.4 1.07-.825 1.686-1.134.62-.305 1.288-.524 1.948-.748 1.31-.442 2.797-.74 3.984-.964-1.77-.098-3.405.469-5.06.92-.513.137-.756.286-1.207.545-.228.131-.748.468-.927.652-.115.119-.716.53-.716.53s.121-.804.137-.94c.059-.47.07-.942.175-1.41a6.698 6.698 0 0 1 1.238-2.675c.763-.99 1.82-1.766 3.023-2.266.126-.051.025-.257-.103-.208-3.315 1.238-5.244 4.12-4.737 7.487-.005-.048-.2-.18-.243-.22a7.49 7.49 0 0 1-1.504-2.064 8.456 8.456 0 0 1-.525-1.357c-.258-.916-.355-1.868-.222-2.792.037-.267.095-.53.173-.79.026-.089-.125-.146-.17-.061-1.16 2.31.282 5.839 2.3 7.529.022 0 .038-.004.059 0 .103.007.129.139.054.191-.07.044-.15.066-.216.103-.21.173-.843.934-1.114 1.28-.322.419-.559.89-.692 1.392a3.97 3.97 0 0 0 .144 2.431c.535 1.383 1.81 2.472 3.25 3.105.076.031.155.067.237.067.08 0 .167-.046.184-.12 0 0-.219-.135-.36-.179-.79-.25-1.41-.821-1.973-1.398-.774-.796-1.33-1.813-1.343-2.859-.008-.696.222-1.062.565-1.667.242-.42.511-.796.823-1.175.128-.154.385-.61.556-.724.117-.084.202-.168.153.02-.236.897-.057 1.929.178 2.83a9.783 9.783 0 0 0 2.532 4.389c.048.052.132.108.19.062.054-.044.006-.13-.041-.184-1.334-1.501-2.267-3.426-2.456-5.34-.029-.29-.11-.576-.149-.869-.014-.104-.073-.541.054-.597.111-.052 1.694 1.938 4.046 3.127.648.328 1.325.608 2.023.828.061.018.143.033.175-.017.043-.062-.054-.138-.129-.172a19.376 19.376 0 0 1-2.8-1.464c-.885-.558-1.486-1.186-2.302-1.817-.103-.076-.828-.625-.731-.699.069-.055 5.918-.217 8.66.026.055.004.129-.002.135-.052"/>
        <g transform="matrix(1 0 0 -1 113 16.649)">
            <mask id="b" fill="#fff">
                <use xlink:href="#a"/>
            </mask>
            <path fill="#A6A8AB" d="M12.492 14.241c.035-.035-.008-.104-.047-.15-.808-.862-1.726-1.598-2.66-2.296-.939-.697-1.646-1.514-2.612-2.156-.512-.338-1.059-.877-1.704-1.243-.199-.112-.077-.18.095-.178.663.018 1.326 0 1.997.132.671.14 1.332.38 1.991.612 1.305.46 2.672 1.145 3.753 1.703-1.374-1.184-3.01-1.745-4.597-2.411-.49-.205-.772-.236-1.28-.307-.258-.04-.865-.09-1.113-.053-.16.022-.874-.02-.874-.02s.547-.572.633-.67c.312-.345.585-.715.93-1.03a6.102 6.102 0 0 1 2.498-1.39c1.171-.325 2.457-.292 3.708.052.13.038.163-.19.033-.232-3.37-1.063-6.539.063-8.01 3.099.02-.046-.064-.272-.074-.333a7.771 7.771 0 0 1-.059-2.6c.068-.49.182-.968.335-1.424.3-.897.758-1.73 1.378-2.396.18-.19.373-.368.58-.524.073-.056-.017-.2-.1-.157-2.228 1.14-3.038 4.89-2.352 7.51.015.014.032.02.048.034.076.076.025.197-.066.188-.083-.004-.156-.04-.23-.05-.266.01-1.202.23-1.617.342a3.539 3.539 0 0 0-1.335.692A3.816 3.816 0 0 0 .495 11.04c-.343 1.447.081 3.125.891 4.529a.687.687 0 0 0 .153.2c.065.049.16.07.214.021 0 0-.1-.246-.19-.369-.496-.692-.678-1.542-.81-2.357-.184-1.123-.063-2.294.513-3.146.386-.566.772-.719 1.39-.995.43-.19.858-.323 1.32-.434.192-.048.65-.252.854-.242.141.008.256-.004.111.115-.69.576-1.12 1.52-1.437 2.396a9.69 9.69 0 0 0-.556 2.837c-.033.752.012 1.518.145 2.279.013.076.051.172.118.172.07-.002.08-.099.07-.177-.236-2.04.086-4.178 1.003-5.837.142-.252.236-.535.367-.798.05-.09.244-.478.378-.447.12.028.283 2.621 1.518 5.046.34.666.73 1.316 1.17 1.924.038.055.096.114.152.098.07-.03.034-.146-.01-.219a21.51 21.51 0 0 1-1.442-2.927c-.402-.996-.534-1.882-.845-2.9-.037-.125-.315-1.02-.198-1.02.09-.002 4.902 3.509 6.98 5.412.04.037.104.079.138.041" mask="url(#b)"/>
        </g>
        <path fill="#A6A8AB" d="M113.501 79.892a19.703 19.703 0 0 1-.982-2.806c-.25-.948-.271-1.765-.437-2.718-.021-.118-.172-.96-.066-.948.084.006 4.069 3.683 5.742 5.624.034.04.087.083.123.052.036-.028.006-.098-.027-.14-.637-.868-1.39-1.627-2.161-2.354-.775-.73-1.327-1.545-2.134-2.225-.428-.36-.867-.907-1.411-1.304-.169-.123-.05-.171.107-.153.601.085 1.207.136 1.803.326.596.197 1.171.479 1.746.757 1.137.55 2.304 1.31 3.226 1.926-1.117-1.212-2.546-1.889-3.915-2.654-.424-.24-.676-.294-1.131-.41-.231-.061-.778-.172-1.008-.162-.15.006-.794-.106-.794-.106s.562-.466.655-.545c.323-.283.613-.592.962-.842a5.712 5.712 0 0 1 2.433-1.008c1.107-.175 2.272-.011 3.375.427.111.046.169-.157.055-.207-1.527-.676-3.278-.882-4.862-.297a5.525 5.525 0 0 0-1.974 1.278c-.498.5-.764 1.208-1.281 1.685a6.622 6.622 0 0 0-1.457 1.925 8.956 8.956 0 0 0-.828 2.523 9.541 9.541 0 0 0-.128 2.089c.003.065.025.156.089.16.062.006.083-.081.083-.15.018-1.878.553-3.785 1.578-5.198.158-.217.275-.463.425-.685.054-.079.278-.414.395-.372.105.04-.041 2.409.808 4.739.234.64.515 1.27.847 1.87.031.052.076.112.127.1.067-.017.049-.126.017-.197M127.568 36.725a18.277 18.277 0 0 1-2.348-1.673c-.73-.617-1.197-1.266-1.86-1.94-.085-.083-.67-.67-.578-.727.071-.046 5.34.485 7.774 1.03.05.011.117.013.13-.033.012-.048-.05-.083-.1-.098-.998-.313-2.03-.468-3.057-.58-1.034-.115-1.934-.44-2.967-.492-.543-.027-1.203-.202-1.865-.188-.205.004-.136-.11.003-.19.535-.302 1.053-.635 1.643-.85.592-.205 1.216-.328 1.836-.46 1.227-.252 2.596-.355 3.686-.419-1.579-.3-3.11.031-4.649.252-.474.071-.709.18-1.145.366-.219.09-.724.338-.906.49-.118.095-.704.404-.704.404s.2-.727.23-.848c.106-.429.172-.857.316-1.275a6.26 6.26 0 0 1 1.42-2.319c.8-.82 1.834-1.41 2.973-1.73.118-.032.05-.234-.068-.201-1.618.388-3.15 1.297-4.112 2.753a6.04 6.04 0 0 0-.896 2.251c-.127.713.05 1.45-.11 2.159a6.917 6.917 0 0 0-.114 2.461c.11.873.354 1.738.722 2.556.28.623.632 1.22 1.05 1.775.04.05.11.11.163.08.055-.035.021-.12-.015-.174-1.025-1.538-1.645-3.419-1.596-5.194.007-.272-.034-.546-.035-.819 0-.096-.002-.508.118-.547.106-.03 1.3 1.984 3.276 3.347.546.38 1.121.716 1.722.998.053.025.124.048.16.006.045-.057-.032-.136-.097-.171M111.692 21.428c.325-.017 1.024-.202 1.529-.177.574.195 2.28.91 4.24.957.652.014 1.31-.023 1.96-.12.059-.008.13-.028.139-.083.012-.07-.093-.094-.167-.09-.95.044-1.9.004-2.831-.11-.927-.111-1.651-.403-2.551-.604-.112-.025-.906-.196-.855-.295.036-.079 4.775-2.572 7.11-3.47.05-.019.109-.054.094-.098-.012-.048-.084-.046-.133-.028-1.004.293-1.956.736-2.886 1.217-.934.476-1.86.708-2.763 1.238-.474.278-1.121.5-1.675.878-.174.121-.174-.015-.094-.159.302-.555.576-1.13.968-1.638.398-.508.867-.961 1.326-1.414.914-.902 2.024-1.755 2.917-2.417-1.49.629-2.624 1.767-3.815 2.812-.37.324-.516.546-.792.949-.14.2-.442.695-.522.92-.048.139-.356.671-.385.72.009.064-.817.946-.814 1.012M140.727 82.017c.232.258.535.578.88.605a.574.574 0 0 0 .314-.081c.029.03.058.058.085.09a.126.126 0 0 0 .026.117c3.076 3.915 7.219 7.205 11.738 8.717-.086-.03-.98.249-1.342.373a3.187 3.187 0 0 0-1.074.633 3.708 3.708 0 0 0-1.08 1.73c-.351 1.192-.118 2.524.427 3.622a.41.41 0 0 0 .108.153c.049.041.119.05.164.007 0 0-.064-.192-.127-.289-.344-.534-.435-1.214-.492-1.867-.074-.901.086-1.855.58-2.577.33-.48.64-.622 1.133-.878a6.36 6.36 0 0 1 1.046-.426c.149-.047.518-.239.675-.24.107-.003.2-.018.08.089-.57.503-.955 1.291-1.25 2.017a8.883 8.883 0 0 0-.614 4.17c.008.06.03.133.083.131.054-.006.066-.085.064-.145-.066-1.645.305-3.392 1.11-4.786.124-.211.214-.449.333-.666.04-.076.215-.402.318-.382.088.018.067 2.11.883 4.008.225.522.49 1.03.795 1.5.027.042.069.09.112.071.056-.024.035-.118.005-.177-.376-.73-.693-1.501-.947-2.295-.255-.789-.305-1.5-.486-2.307-.025-.101-.187-.81-.096-.816.068-.006 3.592 2.585 5.088 4.02.03.025.078.057.107.025.028-.03 0-.085-.03-.12-.575-.658-1.241-1.207-1.925-1.72-.685-.518-1.185-1.143-1.898-1.61-.375-.247-.77-.656-1.246-.916-.15-.081-.05-.146.084-.153.513-.02 1.025-.07 1.537.002.513.083 1.01.239 1.506.392.982.303 2.002.785 2.805 1.18-.994-.887-2.227-1.255-3.417-1.71-.37-.142-.584-.152-.974-.181-.197-.018-.666-.03-.86.013-.124.031-.672.034-.672.034s.455-.492.53-.578c.26-.297.492-.612.775-.884a5.624 5.624 0 0 1 2.014-1.258 5.149 5.149 0 0 1 2.865-.152c.1.021.139-.163.039-.192-2.547-.682-5.061.396-6.376 2.934.017-.038-.032-.216-.038-.265a6.64 6.64 0 0 1 .104-2.1c.082-.403.197-.798.34-1.178.287-.74.687-1.44 1.206-2.01.15-.166.31-.319.477-.46.062-.048 0-.16-.065-.122-1.806 1.052-2.651 4.181-2.246 6.268-4.546-2.063-8.374-4.714-11.68-8.82l-.12-.162a.667.667 0 0 0 .176-.396c.023-.338-.233-.653-.415-.9-.24-.325-.527-.603-.884-.757-.137-.197-.361-.32-.596-.233-.845.314-.002 1.535.338 1.908M176.113 79.127c.328-.017.746-.037 1.002-.3a.727.727 0 0 0 .162-.307c.037 0 .076-.004.115-.007.02.031.05.058.098.058 4.676.193 9.68-.904 13.765-3.525-.079.053-.509.965-.673 1.342a4.079 4.079 0 0 0-.32 1.3 4.05 4.05 0 0 0 .402 2.06c.544 1.093 1.582 1.821 2.677 2.13.055.015.117.033.174.02.057-.017.114-.066.118-.128 0 0-.173-.08-.28-.098-.586-.088-1.095-.476-1.563-.88-.646-.555-1.163-1.338-1.302-2.23-.088-.596.027-.94.2-1.517a7.76 7.76 0 0 1 .433-1.137c.074-.154.2-.581.305-.71.074-.09.124-.174.113-.007-.059.807.195 1.66.47 2.393.282.75.664 1.45 1.128 2.074.355.474.757.905 1.201 1.274.041.036.107.067.14.026.034-.049-.009-.115-.05-.151-1.127-1.076-2.024-2.57-2.389-4.174-.057-.248-.15-.476-.213-.725-.022-.084-.117-.447-.035-.516.072-.06 1.435 1.388 3.244 2.028a8.171 8.171 0 0 0 1.531.383c.047.009.104.007.121-.042.024-.063-.052-.11-.11-.126a12.183 12.183 0 0 1-2.16-.805c-.693-.335-1.196-.778-1.85-1.185-.083-.048-.66-.401-.604-.483.044-.059 4.16-1.132 6.128-1.361.04-.002.09-.022.088-.068 0-.044-.055-.059-.096-.059-.828.018-1.646.18-2.45.381-.81.2-1.565.178-2.36.43-.418.136-.957.174-1.457.381-.153.062-.127-.06-.04-.17.335-.43.652-.877 1.052-1.24.402-.36.847-.654 1.287-.95.873-.59 1.888-1.08 2.697-1.462-1.263.197-2.349.947-3.465 1.597-.343.198-.498.365-.787.66-.143.146-.469.518-.574.704-.066.119-.44.566-.44.566s-.015-.706-.02-.823c-.015-.414-.064-.819-.05-1.23.032-.86.213-1.715.55-2.49a6.187 6.187 0 0 1 1.86-2.421c.081-.066-.014-.223-.097-.162-2.194 1.59-3.205 4.362-2.432 7.159-.013-.042-.166-.12-.2-.148a5.782 5.782 0 0 1-1.315-1.527c-.21-.338-.388-.7-.54-1.076a6.772 6.772 0 0 1-.498-2.35 5.304 5.304 0 0 1 .026-.702c.007-.08-.108-.109-.129-.028-.54 2.177.94 5.004 2.59 6.103-4.469 2.26-8.833 3.545-13.794 3.405-.064-.004-.127-.01-.19-.015a.672.672 0 0 0-.14-.41c-.208-.252-.59-.258-.876-.283-.38-.028-.758.013-1.104.198-.223-.022-.459.072-.56.322-.37.896 1.01 1.056 1.486 1.034"/>
        <g transform="matrix(1 0 0 -1 236 168.535)">
            <mask id="d" fill="#fff">
                <use xlink:href="#c"/>
            </mask>
            <path fill="#A6A8AB" d="M20.715 17.25c-.241-.266-.555-.599-.912-.625a.584.584 0 0 0-.326.082c-.028-.03-.06-.06-.086-.094a.127.127 0 0 0-.028-.121C16.18 12.447 11.89 9.04 7.213 7.478c.09.033 1.017-.255 1.39-.384.403-.14.783-.36 1.11-.653.52-.46.916-1.09 1.12-1.79.362-1.234.122-2.613-.443-3.747a.444.444 0 0 0-.111-.159c-.05-.04-.125-.05-.17-.007 0 0 .067.2.129.301.359.551.454 1.254.512 1.93.078.932-.09 1.92-.6 2.665-.341.497-.662.642-1.173.907a6.605 6.605 0 0 1-1.082.44c-.157.05-.537.247-.698.25-.113.002-.207.018-.084-.092.586-.52.989-1.335 1.295-2.085.309-.764.517-1.58.614-2.41.072-.63.08-1.271.017-1.906C9.033.68 9.01.602 8.955.604c-.055.005-.066.09-.063.152.065 1.7-.32 3.505-1.154 4.947-.127.221-.22.465-.34.69-.043.079-.226.415-.33.395-.093-.018-.07-2.182-.916-4.143a10.388 10.388 0 0 0-.822-1.553c-.027-.042-.07-.091-.114-.073-.06.024-.037.12-.005.182.389.758.716 1.552.979 2.374.26.817.316 1.549.503 2.384.024.106.193.84.098.843-.07.009-3.717-2.67-5.266-4.15-.031-.034-.078-.062-.111-.03-.028.032 0 .087.033.123.592.682 1.284 1.247 1.99 1.779.71.536 1.229 1.182 1.965 1.663.389.258.797.682 1.29.95.154.085.052.15-.085.156-.531.023-1.062.074-1.591-.002-.532-.082-1.047-.245-1.56-.403C2.44 6.577 1.386 6.076.552 5.666c1.03.917 2.309 1.299 3.539 1.768.383.148.604.158 1.007.19.205.016.688.026.888-.017.13-.032.7-.035.7-.035s-.472.513-.55.6c-.268.306-.51.633-.803.913a5.853 5.853 0 0 1-2.084 1.305 5.39 5.39 0 0 1-2.967.154c-.101-.02-.143.17-.04.199 2.636.706 5.24-.411 6.6-3.035-.021.038.034.224.04.272a6.933 6.933 0 0 1-.108 2.176 7.591 7.591 0 0 1-.353 1.216c-.295.767-.711 1.489-1.246 2.079-.156.17-.322.33-.496.474-.063.05 0 .168.068.127C6.616 12.964 7.49 9.73 7.072 7.57c4.703 2.135 8.668 4.877 12.088 9.12l.123.17a.703.703 0 0 0-.181.407c-.024.351.243.676.43.931.247.337.544.625.912.782.144.206.375.334.62.244.874-.326.003-1.593-.35-1.974" mask="url(#d)"/>
        </g>
    </g>
</svg>
